<?xml version="1.0" encoding="UTF-8"?>
<svg width="51px" height="36px" viewBox="0 0 51 36" version="1.1" xmlns="http://www.w3.org/2000/svg" xmlns:xlink="http://www.w3.org/1999/xlink">
    <!-- Generator: Sketch 44.1 (41455) - http://www.bohemiancoding.com/sketch -->
    <title>logo_icon</title>
    <desc>Created with Sketch.</desc>
    <defs></defs>
    <g id="Page-1" stroke="none" stroke-width="1" fill="none" fill-rule="evenodd">
        <g id="Desktop-HD" transform="translate(-172.000000, -216.000000)" fill-rule="nonzero" fill="#FFCC00">
            <g id="logo_icon" transform="translate(172.000000, 216.000000)">
                <path d="M0,30.0722678 C0,28.5334891 1.23826332,27.2838214 2.7627403,27.2838214 L5.28716879,27.2838214 C6.81523842,27.2838214 8.04990909,28.5334891 8.04990909,30.0722678 L8.04990909,32.6152649 C8.04990909,34.1516835 6.81523842,35.4013512 5.28716879,35.4013512 L2.7627403,35.4013512 C1.23826332,35.4013512 0,34.1516835 0,32.6152649 L0,30.0722678 L0,30.0722678 Z M10.010293,28.0768117 C10.010293,29.996745 11.5563259,31.5591246 13.4628203,31.5591246 L17.6817774,31.5591246 C19.5882718,31.5591246 21.1331071,29.996745 21.1331071,28.0768117 L21.1331071,23.8251094 C21.1331071,21.9051761 19.5882718,20.3439765 17.6817774,20.3439765 L13.4628203,20.3439765 C11.5563259,20.3439765 10.010293,21.9051761 10.010293,23.8251094 L10.010293,28.0768117 L10.010293,28.0768117 Z M24.5281521,22.6332639 C24.5281521,24.5555573 26.0753825,26.1132168 27.9818768,26.1132168 L46.9809556,26.1132168 C48.8898451,26.1132168 50.4358779,24.5555573 50.4358779,22.6332639 L50.4358779,3.48467301 C50.4358779,1.56001954 48.8898451,0 46.9809556,0 L27.9818768,0 C26.0753825,0 24.5281521,1.56001954 24.5281521,3.48467301 L24.5281521,22.6332639 L24.5281521,22.6332639 Z" id="Fill-1"></path>
            </g>
        </g>
    </g>
</svg>